       264
 
O         8.1942642062       -0.9642240690        3.2816711427
H         7.7946891633       -0.5230660832        4.0548297287
H         8.6844830193       -1.7511969575        3.6069955612
O        17.3614258570        7.8706306597        5.5740870352
H        17.8367495130        8.6842930245        5.1513906011
H        17.9190516393        7.0495129610        5.3613764810
O         7.6801245783       15.8201997715        8.3965662771
H         7.2564439165       16.0952732706        9.2509169501
H         7.8112326102       16.7283808747        7.8865278866
O         3.2682581855       11.4329380197       12.4904069882
H         4.1765179113       11.0136588497       12.6535955731
H         2.5361474519       11.0429521047       13.1113819327
O        11.0033322338        5.2794374712       -0.5207475402
H        10.7995281602        6.2345568577       -0.8683838171
H        11.8443266240        5.2329281880        0.0569708227
O        -0.8839353674        9.0345285570       -3.2479396261
H        -0.6072730476        9.9363700697       -3.5507783035
H        -0.0458894025        8.7356315321       -2.7686979297
O         7.3073384899       11.9083692377        9.4702345922
H         7.2603434507       12.3931343878        8.5834607329
H         7.1842284144       12.6023361696       10.1954533997
O        12.0734349442        0.7300894175        9.4089527271
H        12.6367968763        0.2602126327        8.7329665427
H        11.1337941209        0.4559013345        9.2335799754
O         9.7015223462       -2.6132312237        5.5625168889
H        10.3564027823       -2.3577429193        6.3125032917
H        10.1786239073       -2.3693812490        4.6950683922
O         1.4520481100        3.9872115945        9.7478341949
H         0.4486429361        3.8164645593        9.6788024172
H         1.6194116888        4.3433361869       10.6640561988
O         9.6512883929       10.1946730639        1.2929021914
H         9.2101727631       10.0215201211       16.4439984695
H         9.5945371175        9.3176694685        0.7640159735
O         6.8052858711        1.9075453838        0.1414477285
H         7.7351997572        2.0142620148       -0.1488511007
H         6.5045842758        2.7999747054       -0.1107328466
O        17.3106130418        8.2068123431        9.6215988520
H        16.4481795474        7.6238775718        9.6035449021
H        17.1344794287        9.1044711284        9.1307059672
O         9.4870804955        3.6763718793        1.2605437646
H         9.7415388252        4.3254485053        0.5591215114
H         9.7360967127        2.7794627572        0.8429933022
O         1.2879731510        4.9597813155       12.5186534896
H         0.3879734667        4.5668515347       12.8708120114
H         1.9867650807        4.4856460481       13.0175001397
O         3.6089685337       12.5494458694        9.8328753489
H         3.3896548455       12.4968388538       10.8422765025
H        18.9160055915       12.6228466973        9.7120092208
O        11.4101873168       12.4638335958       12.3008282805
H        12.1346800288       11.7998331552       12.1506668713
H        10.5417668023       11.9449331794       12.2735206120
O         5.1112475377        9.9747077828        6.3892088283
H         4.6255412498       10.4529175308        5.6464241610
H         6.0833030495        9.9159508449        6.0896949238
O        13.6578087272       13.7340171915        7.0089499173
H        13.9303000933       13.1064435883        6.2426117839
H        14.2956063408       14.5817233402        6.9817090665
O        14.0892160095       -1.1183407619        2.7032098558
H        14.1630863164       -1.0929877687        1.6528148641
H        14.2808559207       -0.1173403760        2.8569595465
O        13.2330309125        3.7461587108       12.6550473428
H        12.4143636573        4.3005808885       12.6730168375
H        13.0998918561        3.3738950609       11.7393120629
O         3.9817279554        3.8075887692        5.6387877579
H         3.0226782405        3.9577060945        5.8585260262
H         4.3803275957        4.7207780162        5.4451779274
O         0.5870545424        1.7446551590        3.2269773559
H        -0.0800114772        2.0378123343        2.4806952324
H         1.5062287096        1.9629869200        2.8433326759
O        15.2930289637        6.5914113195        9.0743428920
H        15.2513865015        5.5571627249        9.1540897434
H        14.3146191869        6.8888516997        9.1243307127
O         9.9757633963        1.1434737606       -0.0466406140
H        10.7377057561        1.3157714139       -0.6770897234
H        10.1576292462        0.1703375185        0.2768976736
O         7.2880591953        6.3237897358       12.3444219183
H         6.7460085702        6.8758832809       11.7234959817
H         7.8255957803        5.7414344887       11.6861418699
O         6.6087435706        9.5833557387        8.6376926942
H         6.8061972788       10.4988241997        9.0118607529
H         5.8584448313        9.6681028163        7.9603134246
O         4.9055701357       -0.5823606762        5.2977048169
H         5.1262236328       -0.0950793997        4.4109283759
H         4.6022427773       -1.5455154541        5.0145688869
O         4.5101011174        1.3830238481       11.1072578300
H         3.6610182194        1.1771413056       10.5651843637
H         4.1779057626        1.2927240649       12.0403552879
O         7.9085377295        9.5753509563        5.3526321947
H         8.1984794941        8.6166103461        5.5361453864
H         8.6364892479       10.2139377389        5.6409855526
O         7.9810878184        6.7129952191       18.5053805544
H         8.7306144187        6.3622511355       19.0663967373
H         7.8709050820        6.0403461296       17.8180075996
O         9.1745488875        7.8277108497       14.1064211330
H         8.5277260629        7.4777093946       13.3610723616
H         8.8531126248        7.4252806985       14.9625641963
O         5.5312978370       11.1134765633       -0.0193410824
H         6.0850350666       11.9154127685       -0.2518746794
H         5.9414161365       10.5880181447        0.7322421336
O         1.3562094496       13.8058931739       10.2376981025
H         1.3983240939       14.7117146953        9.8053218264
H         2.1758935484       13.3218243873        9.8960993960
O         9.6386338252       14.0819556724        8.9712536502
H         9.2598879309       14.0989308007        9.9327385469
H         9.2406104905       14.8357412636        8.4279313542
O        11.6695470144        9.5293147233        8.0755183430
H        11.2691603713        9.7458358940        8.9590565972
H        11.6414470213       10.4331916725        7.6406751006
O         7.4551026869        4.6533867042        2.6158990074
H         8.3817234031        4.2419837135        2.4010421963
H         7.2272168421        4.1414702555        3.4352394016
O        12.4386058155        9.6289342639        1.5510513244
H        12.7627367960       -5.0301812020        2.4775521626
H        11.4555974643        9.8510644293        1.5804976290
O        -1.3740248343        5.2487415121        1.4196385999
H        -2.0665218730        5.4051830505        2.1485308218
H        -0.5160390030        5.6051096655        1.8828024745
O        10.4674392821        7.9948884034        5.9644727707
H        10.6106251991        8.5123047051        6.8524270186
H        10.6397971025        7.0036877392        6.0402425594
O        -1.5639274359        7.2484176472        9.0828017075
H        -1.6885151813        8.1321782074        8.5773870363
H        -1.3845818757        7.4246147425       -4.2385971811
O         3.4486840211        4.1082514031       14.3907979565
H         4.3509866401        4.5343060114       14.2333536257
H         3.5196792868        3.6846754451       15.3189221984
O         5.7421279081        8.0800499504       10.7733627073
H         6.1602220269        8.5474692626        9.9648412620
H         4.7375470481        8.1371626222       10.6051814585
O        -1.6080014528        8.0823503736        4.1623859988
H        -2.1817662684        8.1152297329        4.9912707079
H        -1.8517157014        7.1373455561        3.8063889697
O         5.2164620797        0.6663273765        2.4589813412
H         5.0434085145       -0.2197836141        1.9315266505
H         5.8356306707        1.2555040645        1.8996154690
O         1.5241117264        7.8960027262       12.2040959886
H         2.0289620145        8.1565095941       11.3486713053
H         1.6365309988        6.8809895561       12.3361657328
O        11.3409214274       12.1067337200        7.6316487734
H        12.1707969903       12.6092744415        7.3105800757
H        10.6582157774       12.7220275788        8.1018366791
O         1.4531785883        9.7518918771       14.0939113018
H         1.6623755669        8.9718432379       13.4810800765
H         0.5297499589       10.0515590829       13.9477356193
O         1.5242577015        5.3061480196        5.5618262219
H         0.7391686419        4.8281488206        5.9823552258
H         1.5873016861        6.1639335177        6.1114815431
O         2.4855086210        1.7005097078        9.1029908229
H         1.9684399605        2.6143347966        9.1838687916
H         2.6589214851        1.6159970563        8.0848676148
O        10.4170382576       -1.4201126554       14.9185377690
H        11.0525398299       -1.5489443639       -0.1324668325
H         9.9312600979       -2.2799622782       15.0456921467
O        10.2226819123        3.0860540274       11.4073422862
H        10.8578388654        3.8697790417       11.5192911455
H         9.3317995929        3.5185217143       11.1792078853
O        14.9319244764        9.3942953522        4.7801250869
H        14.0960549378       -5.5111526793        4.7415526011
H        15.7050167390        8.7658632693        5.0959611557
O        15.0536666161        5.8059850524        3.0214448286
H        15.4925746018        5.6157943832        3.9214614070
H        15.7445833080        6.4293975347        2.5948611396
O        11.9524373048       15.3256304035       12.2993018979
H        11.8309694103       14.3724041382       12.0099262582
H        11.3818788045       15.8824548187       11.6883461096
O        10.2800555127        2.5147342194        6.7021175391
H        11.0538445119        1.8910319535        6.5309375754
H         9.3530576774        2.1302560143        6.4937750728
O         0.5857942598        1.7602761077        5.9561196053
H         1.5886121383        1.5364752099        6.0845484798
H         0.5083215272        1.9013040765        4.9727953259
O         3.2933614465        2.9232561686        2.5959989478
H         4.1121962821        2.3899141183        2.3864287310
H         3.3074623803        3.0730185210        3.5730290831
O         2.4037132230        6.9142650964        1.1959839854
H         2.0834491442        6.1222925066        0.6600219146
H         2.2373057731        7.7629377716        0.7028176788
O         7.1435845001        9.5151956193        2.7875339338
H         6.1472814643        9.1211919901        2.7110957607
H         7.4412015702        9.3624739649        3.7103229165
O         9.4591139829       10.5935941361       11.5307059830
H         8.5964066840       10.6262497732       11.0690061415
H         9.7134878228        9.6345405899       11.5604760218
O         3.8601055269       -1.1361605819       14.9412900435
H         3.4894801755       -0.4553625316       14.3186157129
H         4.2959632055       -1.7778200000       -0.0029108258
O         7.0744367926       13.6793621836       11.3471959842
H         7.1571253680       13.4799781510       12.3219437056
H         6.6077431439        0.2534915889       11.1810349474
O        13.0322686249        3.3440404735        9.6960847088
H        12.2765773840        3.6740624714        9.0563326870
H        12.7893501550        2.3535100716        9.7114317277
O         4.6043407446        5.2174520198        8.5972258581
H         3.9003194582        5.9138083144        8.6508814962
H         5.3665272479        5.6414230522        8.0530628801
O         6.0542680249        4.9591034607       14.2413855913
H         6.6231780555        5.4767826914       13.6145371994
H         6.7288906165        5.0530494538       15.0062970505
O         6.4060521043       13.4119270603        7.4094235498
H         6.8710278356       14.2487479300        7.7189135684
H         5.8780487571       13.6156312919        6.5694850608
O         3.1430787018       15.7264766172       13.6291293308
H         3.2438916382       16.7267178971       13.6901860377
H         2.1510566981        1.2582545748       13.4888458547
O        13.5071008054        2.5802903196       15.5106289178
H        13.1904611188       17.8598510628       15.5230959386
H        -0.6726290638        2.5426800381       14.5390990855
O        14.5913096247       11.2624692809       10.0439385219
H        15.0029943973       12.1100098474       10.3011056576
H        14.9266357351       10.9329397377        9.1686187135
O        14.1730944141       -1.4495160159        0.0808225427
H        13.9584042427       -2.2021029908       -0.5291840058
H        14.4531386069       -0.6681998425       -0.5054027894
O         3.0211318219       -3.5473315318       16.3210495899
H        16.8074856454       -3.8567255884       15.5312569048
H         3.4105966823       -2.6756531785       15.9486280319
O        -1.1597662922       10.3692980443       13.4413565890
H        -1.4718733290       10.1247304087       14.4143689381
H        -1.5764002555        9.7080108507       12.8703594839
O         6.5183724890        6.9893228425        7.4327237696
H         7.4240991937        6.5732058576        7.5339388455
H         6.6400508480        7.9890896642        7.4312011238
O        14.2015193990       11.8604181122        5.1959986977
H        -0.3082157218       12.3918183406        4.3190128960
H        14.5354712484       10.8963317152        4.9177981630
O         7.4016285174       -0.8941193953       14.2125312234
H         7.1524008111        0.0299956623       14.5460655357
H         8.2226796416       -1.1398548339       14.7679549623
O         6.1763526360        3.5893922384       10.3326475516
H         5.8657790117        2.7988380780       10.8214595705
H         5.3173477187        4.1521714122       10.0768550414
O        13.3916174111        4.1922132778        6.2764805410
H        13.4169688727        3.2084233329        6.4065026037
H        12.5246339054        4.4854544946        6.6640038746
O         5.1883516691        6.2835345644        5.1177946277
H         5.7945536865        6.3341870755        4.3104358016
H         5.7837861077        6.3934294954        5.9126700096
O         6.7701436586        3.5614045611        5.1071285246
H         5.8136938959        3.2883026193        5.3358277878
H         7.2361170098        3.7012851206        6.0417901625
O         3.2724740658       11.2377671724        4.7538384833
H         2.4823802135       11.1939199331        5.3523420868
H         2.9765944137       11.3234587053        3.7745690679
O        11.3666841927       -1.5488198631        3.6777652555
H        10.8492975101       -1.3975553019        2.8115380846
H        12.2465134389       12.8624425165        3.2400744849
O        14.6664741273       15.2330134258       12.8474750879
H        13.6757573313       15.5198952320       12.8650963597
H        14.8065450414       14.7603727291       11.9794215651
O         3.1422432514        1.1866550081        6.0822055261
H         3.7942268336        1.9063002785        5.7854205927
H         3.6788316955        0.3374650471        6.0270262639
O         4.5524424165        8.4038324766       16.8232456847
H         3.8976599069        9.2019635263       16.6136817331
H         3.9395939769        7.5984033251       16.6916285059
O        16.8377056693       10.3214353486        8.2421788434
H        16.9930025899       10.5858105845        7.3112762946
H        17.1689159124       11.1200081883        8.8355824167
O         8.5414074555        4.8487322420       10.4018789110
H         8.5964099954        5.4022767913        9.5662497022
H         7.7056858694        4.2192429950       10.3219390078
O        -2.2460142774        5.5884269037        3.9267339410
H        -3.1293740913        5.2818724225        4.3811420597
H        -1.4203277036        5.1218436712        4.2914621556
